{
  "project_info": {
    "project_number": "948167810200",
    "firebase_url": "https://gagotapp-9e481.firebaseio.com",
    "project_id": "gagotapp-9e481",
    "storage_bucket": "gagotapp-9e481.appspot.com"
  },
  "client": [
    {
      "client_info": {
        "mobilesdk_app_id": "1:948167810200:android:9d2a0753eb23fb05f704ed",
        "android_client_info": {
          "package_name": "com.gagotapp"
        }
      },
      "oauth_client": [
        {
          "client_id": "948167810200-d87ev048klbpvhb2i7uonacfbrak6g6f.apps.googleusercontent.com",
          "client_type": 3
        }
      ],
      "api_key": [
        {
          "current_key": "AIzaSyCezaytxKsbuJCCTvbNxmuf1XhcVr8Z764"
        }
      ],
      "services": {
        "appinvite_service": {
          "other_platform_oauth_client": [
            {
              "client_id": "948167810200-d87ev048klbpvhb2i7uonacfbrak6g6f.apps.googleusercontent.com",
              "client_type": 3
            },
            {
              "client_id": "948167810200-u13v5fu0f1m25b3s0uurhpp7f7ac0plt.apps.googleusercontent.com",
              "client_type": 2,
              "ios_info": {
                "bundle_id": "org.reactjs.native.example.ListingApp"
              }
            }
          ]
        }
      }
    }
  ],
  "configuration_version": "1"
}